…
If we enter these tables, R will show us the tibbles that were made

    pl 
    pn 
    pa 
    ol 
    on 
    oa

#### Example

showing `pa`

    pa
    #> # A tibble: 46 × 3
    #>     jday         n group
    #>    <dbl>     <dbl> <chr>
    #>  1  15.6 -0.00383  pa   
    #>  2  32.1 -0.00273  pa   
    #>  3  46.9 -0.00273  pa   
    #>  4  61.1 -0.00273  pa   
    #>  5  75.4 -0.00273  pa   
    #>  6  93.3  0.00383  pa   
    #>  7  98.7  0.0344   pa   
    #>  8 125.   0.0202   pa   
    #>  9 154.  -0.000546 pa   
    #>  10 129.   0.0115   pa   
    #> # … with 36 more rows
…
